<?xml version="1.0" encoding="utf-8"?>
<!-- Generator: Adobe Illustrator 19.0.0, SVG Export Plug-In . SVG Version: 6.00 Build 0)  -->
<svg version="1.1" id="Calque_1" xmlns="http://www.w3.org/2000/svg" x="0px" y="0px"
     viewBox="0 0 40.6 51" style="enable-background:new 0 0 40.6 51;" xml:space="preserve">
<style type="text/css">
	.st0{fill:#E2E2E2;}
</style>
<g id="PICTO_time">
	<path class="st0" d="M19.2,16.7C10.8,16.7,4,23.5,4,31.9C4,40.2,10.8,47,19.2,47c8.4,0,15.1-6.8,15.1-15.1
		C34.3,23.5,27.5,16.7,19.2,16.7z M19.2,46.3c-7.9,0-14.4-6.5-14.4-14.4c0-7.9,6.5-14.4,14.4-14.4c7.9,0,14.4,6.5,14.4,14.4
		C33.6,39.8,27.1,46.3,19.2,46.3z"/>
	<path class="st0" d="M19.2,12.7c-5.1,0-9.9,2-13.6,5.6C2,21.9,0,26.7,0,31.9c0,5.1,2,9.9,5.6,13.6c3.6,3.6,8.4,5.6,13.6,5.6
		c5.2,0,10.1-2.1,13.8-5.8c3.5-3.6,5.4-8.3,5.4-13.4c0-5.1-2-9.9-5.6-13.6C29.1,14.7,24.3,12.7,19.2,12.7z M30.8,43.1
		c-3.1,3.2-7.2,4.9-11.6,4.9C10.3,48.1,3,40.8,3,31.9c0-8.9,7.3-16.2,16.2-16.2s16.2,7.3,16.2,16.2C35.4,36.1,33.8,40.1,30.8,43.1z"
		/>
	<path class="st0" d="M18,11.2c-0.2,0-0.4,0-0.5-0.1v1.1c0.6-0.1,1.2-0.1,1.8-0.1s1.2,0,1.8,0.1v-1.1c-0.2,0-0.4,0.1-0.5,0.1H18z"/>
	<path class="st0" d="M15.1,7.7c0.1-0.5,0.4-1,0.7-1.4c-0.4-0.5-0.7-1.1-0.7-1.7c0-1.7,1.8-3,4.1-3c2.3,0,4.1,1.4,4.1,3
		c0,0.6-0.3,1.2-0.7,1.7c0.4,0.4,0.6,0.9,0.7,1.4c1-0.8,1.6-1.9,1.6-3.2c0-2.5-2.5-4.6-5.7-4.6s-5.7,2.1-5.7,4.6
		C13.6,5.8,14.1,6.9,15.1,7.7z"/>
	<path class="st0" d="M22.9,8.3c0-1.3-1.1-2.4-2.4-2.4H18c-1.3,0-2.4,1.1-2.4,2.4s1.1,2.4,2.4,2.4h2.5C21.8,10.7,22.9,9.6,22.9,8.3z
		"/>
	<path class="st0" d="M28.2,22.7L19.3,30c-0.5,0-1,0.1-1.4,0.5c-0.7,0.7-0.7,1.9,0,2.6c0.7,0.7,1.9,0.7,2.6,0
		c0.4-0.4,0.6-0.9,0.5-1.4l7.3-8.9C28.3,22.8,28.3,22.8,28.2,22.7C28.3,22.7,28.2,22.7,28.2,22.7z"/>
	<path class="st0" d="M37.5,18.7L35.2,16l-2.1,1.7c0.4,0.4,0.8,0.8,1.2,1.3c0.4,0.5,0.7,0.9,1.1,1.4L37.5,18.7z"/>
	<path class="st0" d="M40.3,16l-2-2.4C37.8,13,37,13,36.4,13.4l-1.6,1.4l3.7,4.3l1.6-1.4C40.7,17.3,40.7,16.5,40.3,16z"/>
</g>
</svg>
