<?xml version="1.0" encoding="utf-8"?>
<!-- Generator: Adobe Illustrator 19.0.0, SVG Export Plug-In . SVG Version: 6.00 Build 0)  -->
<svg version="1.1" id="Calque_1" xmlns="http://www.w3.org/2000/svg" x="0px" y="0px"
     viewBox="0 0 19.6 17.9" style="enable-background:new 0 0 19.6 17.9;" xml:space="preserve">
<style type="text/css">
	.st0{fill:#5C6670;}
	.st1{fill:#FFFFFF;}
</style>
<g id="XMLID_59_">
	<g id="PICTO_doc_1_">
		<rect id="XMLID_101_" x="9" y="8.5" class="st0" width="6.9" height="0.7"/>
		<rect id="XMLID_98_" x="9" y="12" class="st0" width="6.9" height="0.7"/>
		<path id="XMLID_82_" class="st0" d="M19.6,9.2V3.8c0-0.1,0-0.2-0.1-0.2l-3.4-3.4C16,0,15.9,0,15.9,0H5.2v17.9h14.5V15V9.2z
			 M16.2,1.2l2.3,2.3h-2.3V1.2z M18.9,15.7v1.5H5.9V0.7h9.6v3.4h3.4v5.7V15.7z"/>
		<path id="XMLID_79_" class="st0" d="M11.7,8H0.9C0.4,8,0,7.6,0,7.1v-4c0-0.5,0.4-0.9,0.9-0.9h10.8c0.5,0,0.9,0.4,0.9,0.9v4
			C12.6,7.6,12.2,8,11.7,8z"/>
		<g id="XMLID_60_">
			<g id="XMLID_136_">
				<path id="XMLID_142_" class="st1" d="M2.8,3.6c1,0,1.6,0.6,1.6,1.4c0,0.8-0.6,1.4-1.6,1.4h-1V3.6H2.8z M2.8,5.8
					c0.6,0,0.9-0.4,0.9-0.8c0-0.5-0.3-0.8-0.9-0.8H2.6v1.5H2.8z"/>
				<path id="XMLID_139_" class="st1" d="M6.2,3.6c0.9,0,1.5,0.7,1.5,1.5c0,0.8-0.6,1.5-1.5,1.5c-1,0-1.5-0.8-1.5-1.5
					C4.7,4.3,5.3,3.6,6.2,3.6z M6.2,5.9c0.4,0,0.8-0.4,0.8-0.8c0-0.5-0.3-0.8-0.7-0.8c-0.4,0-0.8,0.4-0.8,0.8
					C5.4,5.5,5.7,5.9,6.2,5.9z"/>
				<path id="XMLID_137_" class="st1" d="M10.8,4.7H10c0-0.2-0.3-0.5-0.6-0.5c-0.5,0-0.7,0.4-0.7,0.9C8.7,5.5,9,6,9.4,6
					C9.8,6,10,5.7,10,5.4h0.8C10.7,6,10.2,6.6,9.4,6.6c-1.1,0-1.7-1-1.3-2.2c0.1-0.3,0.4-0.6,0.6-0.7C9.9,3.2,10.7,4,10.8,4.7z"/>
			</g>
		</g>
	</g>
</g>
</svg>
