<?xml version="1.0" encoding="utf-8"?>
<!-- Generator: Adobe Illustrator 19.0.0, SVG Export Plug-In . SVG Version: 6.00 Build 0)  -->
<svg version="1.1" id="Calque_1" xmlns="http://www.w3.org/2000/svg" x="0px" y="0px"
     viewBox="0 0 17 17" style="enable-background:new 0 0 17 17;" xml:space="preserve">
<style type="text/css">
	.st0{fill:#5D6670;}
	.st1{fill:#FFFFFF;}
</style>
<g id="XMLID_2_">
	<g id="PICTO_new_incident_1_">
		<circle id="XMLID_6_" class="st0" cx="8.5" cy="8.5" r="8.5"/>
	</g>
</g>
<path id="XMLID_86_" class="st1" d="M11.2,7.4c0,0.5-0.2,1-0.5,1.5C10.4,9.4,9.9,9.7,9.4,10s-1.2,0.4-1.8,0.4c-0.3,0-0.6,0-0.9-0.1
	c-0.4,0.3-0.9,0.6-1.5,0.7c-0.1,0-0.3,0.1-0.4,0.1h0c0,0-0.1,0-0.1,0c0,0-0.1-0.1-0.1-0.1c0,0,0,0,0,0c0,0,0,0,0,0s0,0,0,0l0,0l0,0
	l0,0l0,0l0,0c0,0,0.1-0.1,0.1-0.1c0.1-0.1,0.1-0.1,0.1-0.2c0,0,0.1-0.1,0.1-0.2C5,10.1,5.1,10.1,5.1,10c0-0.1,0.1-0.2,0.1-0.3
	c-0.4-0.3-0.8-0.6-1-1C4,8.3,3.8,7.9,3.8,7.4c0-0.5,0.2-1,0.5-1.5c0.3-0.5,0.8-0.8,1.3-1.1s1.2-0.4,1.8-0.4s1.3,0.1,1.8,0.4
	s1,0.6,1.3,1.1C11,6.4,11.2,6.9,11.2,7.4z M13.2,8.9c0,0.5-0.1,0.9-0.4,1.3c-0.2,0.4-0.6,0.7-1,1c0,0.1,0.1,0.2,0.1,0.3
	s0.1,0.2,0.1,0.2c0.1,0.1,0.1,0.1,0.1,0.2c0,0,0.1,0.1,0.1,0.2c0.1,0.1,0.1,0.1,0.1,0.1c0,0,0,0,0,0c0,0,0,0,0,0c0,0,0,0,0,0
	c0,0,0,0,0,0l0,0l0,0l0,0l0,0c0,0.1,0,0.1-0.1,0.1c0,0-0.1,0-0.1,0c-0.2,0-0.3-0.1-0.4-0.1c-0.5-0.2-1-0.4-1.5-0.7
	c-0.3,0.1-0.6,0.1-0.9,0.1c-0.9,0-1.8-0.3-2.5-0.8c0.2,0,0.4,0,0.5,0c0.6,0,1.1-0.1,1.6-0.3s1-0.4,1.4-0.8c0.4-0.4,0.8-0.8,1-1.2
	c0.2-0.5,0.4-1,0.4-1.5c0-0.3,0-0.6-0.1-0.9c0.4,0.3,0.8,0.6,1.1,1S13.2,8.4,13.2,8.9z"/>
</svg>
