[
  {
    "_id": "4e7c3ef0-822f-11e9-9a16-a5eaa2f36141",
    "_type": "dashboard",
    "_source": {
      "title": "Activity",
      "hits": 0,
      "description": "",
      "panelsJSON": "[{\"gridData\":{\"x\":0,\"y\":0,\"w\":24,\"h\":15,\"i\":\"1\"},\"version\":\"6.7.2\",\"panelIndex\":\"1\",\"type\":\"visualization\",\"id\":\"3f6cb9a0-822d-11e9-9a16-a5eaa2f36141\",\"embeddableConfig\":{}},{\"gridData\":{\"x\":24,\"y\":0,\"w\":24,\"h\":15,\"i\":\"2\"},\"version\":\"6.7.2\",\"panelIndex\":\"2\",\"type\":\"visualization\",\"id\":\"b3977ea0-822d-11e9-9a16-a5eaa2f36141\",\"embeddableConfig\":{}},{\"gridData\":{\"x\":0,\"y\":15,\"w\":48,\"h\":12,\"i\":\"3\"},\"version\":\"6.7.2\",\"panelIndex\":\"3\",\"type\":\"visualization\",\"id\":\"faf5db60-82ec-11e9-87e0-8748652e912b\",\"embeddableConfig\":{\"vis\":{\"legendOpen\":true}}}]",
      "optionsJSON": "{\"darkTheme\":false,\"useMargins\":true,\"hidePanelTitles\":false}",
      "version": 1,
      "timeRestore": false,
      "kibanaSavedObjectMeta": {
        "searchSourceJSON": "{\"query\":{\"query\":\"\",\"language\":\"lucene\"},\"filter\":[]}"
      }
    },
    "_meta": {
      "savedObjectVersion": 2
    }
  },
  {
    "_id": "6811b710-7630-11e9-be9b-0f90f63a79bb",
    "_type": "dashboard",
    "_source": {
      "title": "Transport Overview",
      "hits": 0,
      "description": "",
      "panelsJSON": "[{\"embeddableConfig\":{},\"gridData\":{\"x\":0,\"y\":0,\"w\":9,\"h\":8,\"i\":\"1\"},\"id\":\"35e18270-7630-11e9-be9b-0f90f63a79bb\",\"panelIndex\":\"1\",\"type\":\"visualization\",\"version\":\"6.7.2\"},{\"embeddableConfig\":{\"mapCenter\":[27.059125784374068,-4.570312500000001],\"mapZoom\":2},\"gridData\":{\"x\":0,\"y\":8,\"w\":24,\"h\":15,\"i\":\"10\"},\"id\":\"b6b35dc0-7c10-11e9-b656-a701c81b2a94\",\"panelIndex\":\"10\",\"type\":\"visualization\",\"version\":\"6.7.2\"},{\"embeddableConfig\":{\"mapCenter\":[27.68352808378776,47.109375],\"mapZoom\":2},\"gridData\":{\"x\":24,\"y\":8,\"w\":24,\"h\":15,\"i\":\"11\"},\"id\":\"eb2c9800-7c10-11e9-b656-a701c81b2a94\",\"panelIndex\":\"11\",\"type\":\"visualization\",\"version\":\"6.7.2\"},{\"embeddableConfig\":{},\"gridData\":{\"x\":9,\"y\":0,\"w\":24,\"h\":8,\"i\":\"12\"},\"id\":\"ce2d26d0-7c0f-11e9-b656-a701c81b2a94\",\"panelIndex\":\"12\",\"type\":\"visualization\",\"version\":\"6.7.2\"},{\"embeddableConfig\":{},\"gridData\":{\"x\":0,\"y\":39,\"w\":48,\"h\":12,\"i\":\"15\"},\"id\":\"e3697ba0-7c11-11e9-b656-a701c81b2a94\",\"panelIndex\":\"15\",\"type\":\"visualization\",\"version\":\"6.7.2\"},{\"embeddableConfig\":{},\"gridData\":{\"x\":33,\"y\":4,\"w\":15,\"h\":4,\"i\":\"18\"},\"id\":\"c669d760-7c94-11e9-9a16-a5eaa2f36141\",\"panelIndex\":\"18\",\"title\":\"\",\"type\":\"visualization\",\"version\":\"6.7.2\"},{\"embeddableConfig\":{},\"gridData\":{\"x\":33,\"y\":0,\"w\":15,\"h\":4,\"i\":\"19\"},\"id\":\"75f7f820-7c94-11e9-9a16-a5eaa2f36141\",\"panelIndex\":\"19\",\"title\":\"\",\"type\":\"visualization\",\"version\":\"6.7.2\"},{\"embeddableConfig\":{\"vis\":{\"legendOpen\":false,\"colors\":{\"Status is completed\":\"#629E51\"}}},\"gridData\":{\"x\":24,\"y\":23,\"w\":24,\"h\":16,\"i\":\"20\"},\"id\":\"84ff0710-7c98-11e9-9a16-a5eaa2f36141\",\"panelIndex\":\"20\",\"title\":\"\\t Somme des prix des expédition pour pays de destination\",\"type\":\"visualization\",\"version\":\"6.7.2\"},{\"embeddableConfig\":{\"vis\":{\"legendOpen\":false,\"colors\":{\"Somme des prix des expédition (€)\":\"#6ED0E0\"}}},\"gridData\":{\"x\":0,\"y\":23,\"w\":24,\"h\":16,\"i\":\"21\"},\"id\":\"f82f5160-7c96-11e9-9a16-a5eaa2f36141\",\"panelIndex\":\"21\",\"title\":\"Somme des prix des expédition pour pays d’origine \",\"type\":\"visualization\",\"version\":\"6.7.2\"}]",
      "optionsJSON": "{\"darkTheme\":false,\"hidePanelTitles\":false,\"useMargins\":true}",
      "version": 1,
      "timeRestore": false,
      "kibanaSavedObjectMeta": {
        "searchSourceJSON": "{\"query\":{\"language\":\"lucene\",\"query\":\"\"},\"filter\":[]}"
      }
    },
    "_meta": {
      "savedObjectVersion": 2
    }
  },
  {
    "_id": "eb440cf0-7644-11e9-8d06-2f62f87595e3",
    "_type": "visualization",
    "_source": {
      "title": "Statut filtre",
      "visState": "{\"title\":\"Statut filtre\",\"type\":\"input_control_vis\",\"params\":{\"controls\":[{\"id\":\"1557837229368\",\"indexPattern\":\"a0813420-7664-11e9-8f85-5daf2d3831cd\",\"fieldName\":\"statut.keyword\",\"parent\":\"\",\"label\":\"Statut\",\"type\":\"list\",\"options\":{\"type\":\"terms\",\"multiselect\":true,\"dynamicOptions\":true,\"size\":2,\"order\":\"desc\"}}],\"updateFiltersOnChange\":false,\"useTimeFilter\":false,\"pinFilters\":false},\"aggs\":[]}",
      "uiStateJSON": "{}",
      "description": "",
      "version": 1,
      "kibanaSavedObjectMeta": {
        "searchSourceJSON": "{\"query\":{\"query\":\"\",\"language\":\"lucene\"},\"filter\":[]}"
      }
    },
    "_meta": {
      "savedObjectVersion": 2
    },
    "_migrationVersion": {
      "visualization": "6.7.2"
    }
  },
  {
    "_id": "1d824550-82bc-11e9-9a16-a5eaa2f36141",
    "_type": "dashboard",
    "_source": {
      "title": "Transport",
      "hits": 0,
      "description": "",
      "panelsJSON": "[{\"embeddableConfig\":{},\"gridData\":{\"h\":19,\"i\":\"1\",\"w\":48,\"x\":0,\"y\":0},\"id\":\"dbbd0d40-82f1-11e9-87e0-8748652e912b\",\"panelIndex\":\"1\",\"type\":\"visualization\",\"version\":\"6.7.2\"}]",
      "optionsJSON": "{\"darkTheme\":false,\"hidePanelTitles\":false,\"useMargins\":true}",
      "version": 1,
      "timeRestore": false,
      "kibanaSavedObjectMeta": {
        "searchSourceJSON": "{\"query\":{\"language\":\"lucene\",\"query\":\"\"},\"filter\":[]}"
      }
    },
    "_meta": {
      "savedObjectVersion": 2
    }
  },
  {
    "_id": "ce2d26d0-7c0f-11e9-b656-a701c81b2a94",
    "_type": "visualization",
    "_source": {
      "title": "Nombre d’expéditions par MT",
      "visState": "{\"title\":\"Nombre d’expéditions par MT\",\"type\":\"metric\",\"params\":{\"addTooltip\":true,\"addLegend\":false,\"type\":\"metric\",\"metric\":{\"percentageMode\":false,\"useRanges\":false,\"colorSchema\":\"Green to Red\",\"metricColorMode\":\"None\",\"colorsRange\":[{\"from\":0,\"to\":10000}],\"labels\":{\"show\":true},\"invertColors\":false,\"style\":{\"bgFill\":\"#000\",\"bgColor\":false,\"labelColor\":false,\"subText\":\"\",\"fontSize\":20}}},\"aggs\":[{\"id\":\"1\",\"enabled\":true,\"type\":\"count\",\"schema\":\"metric\",\"params\":{}},{\"id\":\"2\",\"enabled\":true,\"type\":\"terms\",\"schema\":\"group\",\"params\":{\"field\":\"mode de transport (psl valide).keyword\",\"size\":5,\"order\":\"desc\",\"orderBy\":\"1\",\"otherBucket\":false,\"otherBucketLabel\":\"Other\",\"missingBucket\":false,\"missingBucketLabel\":\"Missing\"}}]}",
      "uiStateJSON": "{}",
      "description": "",
      "version": 1,
      "kibanaSavedObjectMeta": {
        "searchSourceJSON": "{\"index\":\"198b34c0-7c1d-11e9-9a16-a5eaa2f36141\",\"query\":{\"query\":\"\",\"language\":\"lucene\"},\"filter\":[]}"
      }
    },
    "_meta": {
      "savedObjectVersion": 2
    },
    "_migrationVersion": {
      "visualization": "6.7.2"
    }
  },
  {
    "_id": "faf5db60-82ec-11e9-87e0-8748652e912b",
    "_type": "visualization",
    "_source": {
      "title": "Le nombre d'opération réalisé par un transporteur",
      "visState": "{\"aggs\":[{\"enabled\":true,\"id\":\"1\",\"params\":{},\"schema\":\"metric\",\"type\":\"count\"},{\"enabled\":true,\"id\":\"2\",\"params\":{\"customLabel\":\"Transporteur\",\"field\":\"transporteur.keyword\",\"missingBucket\":false,\"missingBucketLabel\":\"Missing\",\"order\":\"desc\",\"orderBy\":\"1\",\"otherBucket\":false,\"otherBucketLabel\":\"Other\",\"size\":15},\"schema\":\"segment\",\"type\":\"terms\"}],\"params\":{\"addLegend\":true,\"addTooltip\":true,\"isDonut\":false,\"labels\":{\"last_level\":true,\"show\":true,\"truncate\":100,\"values\":true},\"legendPosition\":\"right\",\"type\":\"pie\"},\"title\":\"Le nombre d'opération réalisé par un transporteur\",\"type\":\"pie\"}",
      "uiStateJSON": "{}",
      "description": "",
      "version": 1,
      "kibanaSavedObjectMeta": {
        "searchSourceJSON": "{\"index\":\"198b34c0-7c1d-11e9-9a16-a5eaa2f36141\",\"query\":{\"language\":\"lucene\",\"query\":\"\"},\"filter\":[]}"
      }
    },
    "_meta": {
      "savedObjectVersion": 2
    },
    "_migrationVersion": {
      "visualization": "6.7.2"
    }
  },
  {
    "_id": "b3977ea0-822d-11e9-9a16-a5eaa2f36141",
    "_type": "visualization",
    "_source": {
      "title": "Coût total par mode de transport",
      "visState": "{\"title\":\"Coût total par mode de transport\",\"type\":\"pie\",\"params\":{\"type\":\"pie\",\"addTooltip\":true,\"addLegend\":true,\"legendPosition\":\"right\",\"isDonut\":false,\"labels\":{\"show\":true,\"values\":true,\"last_level\":true,\"truncate\":100}},\"aggs\":[{\"id\":\"1\",\"enabled\":true,\"type\":\"sum\",\"schema\":\"metric\",\"params\":{\"field\":\"prix de quotation\",\"customLabel\":\"Coûts total\"}},{\"id\":\"2\",\"enabled\":true,\"type\":\"terms\",\"schema\":\"segment\",\"params\":{\"field\":\"mode de transport.keyword\",\"size\":5,\"order\":\"desc\",\"orderBy\":\"1\",\"otherBucket\":false,\"otherBucketLabel\":\"Other\",\"missingBucket\":false,\"missingBucketLabel\":\"Missing\",\"customLabel\":\"Mode de transport\"}}]}",
      "uiStateJSON": "{}",
      "description": "",
      "version": 1,
      "kibanaSavedObjectMeta": {
        "searchSourceJSON": "{\"index\":\"198b34c0-7c1d-11e9-9a16-a5eaa2f36141\",\"query\":{\"query\":\"\",\"language\":\"lucene\"},\"filter\":[]}"
      }
    },
    "_meta": {
      "savedObjectVersion": 2
    },
    "_migrationVersion": {
      "visualization": "6.7.2"
    }
  },
  {
    "_id": "b6b35dc0-7c10-11e9-b656-a701c81b2a94",
    "_type": "visualization",
    "_source": {
      "title": "Pays d’origine en nombre d’expéditions",
      "visState": "{\"title\":\"Pays d’origine en nombre d’expéditions\",\"type\":\"tile_map\",\"params\":{\"colorSchema\":\"Yellow to Red\",\"mapType\":\"Scaled Circle Markers\",\"isDesaturated\":false,\"addTooltip\":true,\"heatClusterSize\":1.5,\"legendPosition\":\"bottomright\",\"mapZoom\":2,\"mapCenter\":[0,0],\"wms\":{\"enabled\":false,\"options\":{\"format\":\"image/png\",\"transparent\":true},\"selectedTmsLayer\":{\"origin\":\"elastic_maps_service\",\"id\":\"road_map\",\"minZoom\":0,\"maxZoom\":18,\"attribution\":\"<p>&#169; <a href=\\\"https://www.openstreetmap.org/copyright\\\">OpenStreetMap contributors</a>|<a href=\\\"https://openmaptiles.org\\\">OpenMapTiles</a>|<a href=\\\"https://www.maptiler.com\\\">MapTiler</a>|<a href=\\\"https://www.elastic.co/elastic-maps-service\\\">Elastic Maps Service</a></p>&#10;\"}}},\"aggs\":[{\"id\":\"1\",\"enabled\":true,\"type\":\"count\",\"schema\":\"metric\",\"params\":{\"customLabel\":\"Nombre d’expédition\"}},{\"id\":\"2\",\"enabled\":true,\"type\":\"geohash_grid\",\"schema\":\"segment\",\"params\":{\"field\":\"origin pays (coordonnees)\",\"autoPrecision\":true,\"isFilteredByCollar\":true,\"useGeocentroid\":true,\"mapZoom\":2,\"mapCenter\":{\"lon\":0,\"lat\":0},\"mapBounds\":{\"bottom_right\":{\"lat\":-75.58493740869223,\"lon\":237.30468750000003},\"top_left\":{\"lat\":75.58493740869223,\"lon\":-237.30468750000003}},\"precision\":2}}]}",
      "uiStateJSON": "{}",
      "description": "",
      "version": 1,
      "kibanaSavedObjectMeta": {
        "searchSourceJSON": "{\"index\":\"198b34c0-7c1d-11e9-9a16-a5eaa2f36141\",\"query\":{\"query\":\"\",\"language\":\"lucene\"},\"filter\":[]}"
      }
    },
    "_meta": {
      "savedObjectVersion": 2
    },
    "_migrationVersion": {
      "visualization": "6.7.2"
    }
  },
  {
    "_id": "67ee0b20-7c12-11e9-b656-a701c81b2a94",
    "_type": "visualization",
    "_source": {
      "title": "Somme des prix des expédition pour pays de destination",
      "visState": "{\"title\":\"Somme des prix des expédition pour pays de destination\",\"type\":\"pie\",\"params\":{\"type\":\"pie\",\"addTooltip\":true,\"addLegend\":true,\"legendPosition\":\"bottom\",\"isDonut\":false,\"labels\":{\"show\":true,\"values\":true,\"last_level\":true,\"truncate\":100}},\"aggs\":[{\"id\":\"1\",\"enabled\":true,\"type\":\"sum\",\"schema\":\"metric\",\"params\":{\"field\":\"prix de quotation\",\"customLabel\":\"Somme des coûts des expéditions (€)\"}},{\"id\":\"2\",\"enabled\":true,\"type\":\"filters\",\"schema\":\"segment\",\"params\":{\"filters\":[{\"input\":{\"query\":\"Statut is Completed\"},\"label\":\"\"}]}},{\"id\":\"3\",\"enabled\":true,\"type\":\"terms\",\"schema\":\"segment\",\"params\":{\"field\":\"destination pays.keyword\",\"size\":5,\"order\":\"desc\",\"orderBy\":\"1\",\"otherBucket\":false,\"otherBucketLabel\":\"Other\",\"missingBucket\":false,\"missingBucketLabel\":\"Missing\"}}]}",
      "uiStateJSON": "{\"vis\":{\"colors\":{\"Statut is Completed\":\"#DEDAF7\"}}}",
      "description": "",
      "version": 1,
      "kibanaSavedObjectMeta": {
        "searchSourceJSON": "{\"index\":\"198b34c0-7c1d-11e9-9a16-a5eaa2f36141\",\"query\":{\"query\":\"\",\"language\":\"lucene\"},\"filter\":[]}"
      }
    },
    "_meta": {
      "savedObjectVersion": 2
    },
    "_migrationVersion": {
      "visualization": "6.7.2"
    }
  },
  {
    "_id": "3f6cb9a0-822d-11e9-9a16-a5eaa2f36141",
    "_type": "visualization",
    "_source": {
      "title": "Poids total par mode de transport",
      "visState": "{\"title\":\"Poids total par mode de transport\",\"type\":\"pie\",\"params\":{\"type\":\"pie\",\"addTooltip\":true,\"addLegend\":true,\"legendPosition\":\"right\",\"isDonut\":false,\"labels\":{\"show\":true,\"values\":true,\"last_level\":true,\"truncate\":100}},\"aggs\":[{\"id\":\"1\",\"enabled\":true,\"type\":\"sum\",\"schema\":\"metric\",\"params\":{\"field\":\"poids total\",\"customLabel\":\"Poids total des expéditions (kg)\"}},{\"id\":\"2\",\"enabled\":true,\"type\":\"terms\",\"schema\":\"segment\",\"params\":{\"field\":\"mode de transport.keyword\",\"size\":5,\"order\":\"desc\",\"orderBy\":\"1\",\"otherBucket\":false,\"otherBucketLabel\":\"Other\",\"missingBucket\":false,\"missingBucketLabel\":\"Missing\",\"customLabel\":\"Mode de transport\"}}]}",
      "uiStateJSON": "{}",
      "description": "",
      "version": 1,
      "kibanaSavedObjectMeta": {
        "searchSourceJSON": "{\"index\":\"198b34c0-7c1d-11e9-9a16-a5eaa2f36141\",\"query\":{\"query\":\"\",\"language\":\"lucene\"},\"filter\":[]}"
      }
    },
    "_meta": {
      "savedObjectVersion": 2
    },
    "_migrationVersion": {
      "visualization": "6.7.2"
    }
  },
  {
    "_id": "e3697ba0-7c11-11e9-b656-a701c81b2a94",
    "_type": "visualization",
    "_source": {
      "title": "Courbe d’évolution par mois",
      "visState": "{\"title\":\"Courbe d’évolution par mois\",\"type\":\"line\",\"params\":{\"type\":\"line\",\"grid\":{\"categoryLines\":false,\"style\":{\"color\":\"#eee\"}},\"categoryAxes\":[{\"id\":\"CategoryAxis-1\",\"type\":\"category\",\"position\":\"bottom\",\"show\":true,\"style\":{},\"scale\":{\"type\":\"linear\"},\"labels\":{\"show\":true,\"truncate\":100},\"title\":{}}],\"valueAxes\":[{\"id\":\"ValueAxis-1\",\"name\":\"LeftAxis-1\",\"type\":\"value\",\"position\":\"left\",\"show\":true,\"style\":{},\"scale\":{\"type\":\"linear\",\"mode\":\"normal\"},\"labels\":{\"show\":true,\"rotate\":0,\"filter\":false,\"truncate\":100},\"title\":{\"text\":\"Somme des coûts (€)\"}}],\"seriesParams\":[{\"show\":\"true\",\"type\":\"line\",\"mode\":\"normal\",\"data\":{\"label\":\"Somme des coûts (€)\",\"id\":\"1\"},\"valueAxis\":\"ValueAxis-1\",\"drawLinesBetweenPoints\":true,\"showCircles\":true}],\"addTooltip\":true,\"addLegend\":true,\"legendPosition\":\"right\",\"times\":[],\"addTimeMarker\":false},\"aggs\":[{\"id\":\"1\",\"enabled\":true,\"type\":\"sum\",\"schema\":\"metric\",\"params\":{\"field\":\"prix de quotation\",\"customLabel\":\"Somme des coûts (€)\"}},{\"id\":\"2\",\"enabled\":true,\"type\":\"date_histogram\",\"schema\":\"segment\",\"params\":{\"field\":\"date de creation\",\"useNormalizedEsInterval\":true,\"interval\":\"M\",\"drop_partials\":false,\"customInterval\":\"2h\",\"min_doc_count\":1,\"extended_bounds\":{},\"customLabel\":\"Date de création\"}}]}",
      "uiStateJSON": "{}",
      "description": "",
      "version": 1,
      "kibanaSavedObjectMeta": {
        "searchSourceJSON": "{\"index\":\"198b34c0-7c1d-11e9-9a16-a5eaa2f36141\",\"query\":{\"query\":\"\",\"language\":\"lucene\"},\"filter\":[]}"
      }
    },
    "_meta": {
      "savedObjectVersion": 2
    },
    "_migrationVersion": {
      "visualization": "6.7.2"
    }
  },
  {
    "_id": "eb2c9800-7c10-11e9-b656-a701c81b2a94",
    "_type": "visualization",
    "_source": {
      "title": "Pays de destination en nombre d’expéditions",
      "visState": "{\"title\":\"Pays de destination en nombre d’expéditions\",\"type\":\"tile_map\",\"params\":{\"colorSchema\":\"Yellow to Red\",\"mapType\":\"Scaled Circle Markers\",\"isDesaturated\":false,\"addTooltip\":true,\"heatClusterSize\":1.5,\"legendPosition\":\"bottomright\",\"mapZoom\":2,\"mapCenter\":[0,0],\"wms\":{\"enabled\":false,\"options\":{\"format\":\"image/png\",\"transparent\":true},\"selectedTmsLayer\":{\"origin\":\"elastic_maps_service\",\"id\":\"road_map\",\"minZoom\":0,\"maxZoom\":18,\"attribution\":\"<p>&#169; <a href=\\\"https://www.openstreetmap.org/copyright\\\">OpenStreetMap contributors</a>|<a href=\\\"https://openmaptiles.org\\\">OpenMapTiles</a>|<a href=\\\"https://www.maptiler.com\\\">MapTiler</a>|<a href=\\\"https://www.elastic.co/elastic-maps-service\\\">Elastic Maps Service</a></p>&#10;\"}}},\"aggs\":[{\"id\":\"1\",\"enabled\":true,\"type\":\"count\",\"schema\":\"metric\",\"params\":{\"customLabel\":\"Nombre d’expédition\"}},{\"id\":\"2\",\"enabled\":true,\"type\":\"geohash_grid\",\"schema\":\"segment\",\"params\":{\"field\":\"destination pays (coordonnees)\",\"autoPrecision\":true,\"isFilteredByCollar\":true,\"useGeocentroid\":true,\"mapZoom\":2,\"mapCenter\":[0,0],\"precision\":2}}]}",
      "uiStateJSON": "{}",
      "description": "",
      "version": 1,
      "kibanaSavedObjectMeta": {
        "searchSourceJSON": "{\"index\":\"198b34c0-7c1d-11e9-9a16-a5eaa2f36141\",\"query\":{\"query\":\"\",\"language\":\"lucene\"},\"filter\":[]}"
      }
    },
    "_meta": {
      "savedObjectVersion": 2
    },
    "_migrationVersion": {
      "visualization": "6.7.2"
    }
  },
  {
    "_id": "35e18270-7630-11e9-be9b-0f90f63a79bb",
    "_type": "visualization",
    "_source": {
      "title": "Nombre total d’expéditions",
      "visState": "{\"title\":\"Nombre total d’expéditions\",\"type\":\"metric\",\"params\":{\"addTooltip\":true,\"addLegend\":false,\"type\":\"metric\",\"metric\":{\"percentageMode\":false,\"useRanges\":false,\"colorSchema\":\"Green to Red\",\"metricColorMode\":\"None\",\"colorsRange\":[{\"from\":0,\"to\":10000}],\"labels\":{\"show\":true},\"invertColors\":false,\"style\":{\"bgFill\":\"#000\",\"bgColor\":false,\"labelColor\":false,\"subText\":\"\",\"fontSize\":20}}},\"aggs\":[{\"id\":\"1\",\"enabled\":true,\"type\":\"count\",\"schema\":\"metric\",\"params\":{\"customLabel\":\"Total\"}},{\"id\":\"2\",\"enabled\":true,\"type\":\"filters\",\"schema\":\"group\",\"params\":{\"filters\":[{\"input\":{\"query\":\"Demande-actualisee\"},\"label\":\"\"}]}}]}",
      "uiStateJSON": "{}",
      "description": "",
      "version": 1,
      "kibanaSavedObjectMeta": {
        "searchSourceJSON": "{\"index\":\"198b34c0-7c1d-11e9-9a16-a5eaa2f36141\",\"query\":{\"query\":\"\",\"language\":\"lucene\"},\"filter\":[]}"
      }
    },
    "_meta": {
      "savedObjectVersion": 2
    },
    "_migrationVersion": {
      "visualization": "6.7.2"
    }
  },
  {
    "_id": "84ff0710-7c98-11e9-9a16-a5eaa2f36141",
    "_type": "visualization",
    "_source": {
      "title": "\t Somme des prix des expédition pour pays de destination",
      "visState": "{\"title\":\"\\t Somme des prix des expédition pour pays de destination\",\"type\":\"histogram\",\"params\":{\"type\":\"histogram\",\"grid\":{\"categoryLines\":false,\"style\":{\"color\":\"#eee\"}},\"categoryAxes\":[{\"id\":\"CategoryAxis-1\",\"type\":\"category\",\"position\":\"bottom\",\"show\":true,\"style\":{},\"scale\":{\"type\":\"linear\"},\"labels\":{\"show\":true,\"truncate\":100},\"title\":{}}],\"valueAxes\":[{\"id\":\"ValueAxis-1\",\"name\":\"LeftAxis-1\",\"type\":\"value\",\"position\":\"left\",\"show\":true,\"style\":{},\"scale\":{\"type\":\"linear\",\"mode\":\"normal\"},\"labels\":{\"show\":true,\"rotate\":0,\"filter\":false,\"truncate\":100},\"title\":{\"text\":\"Somme des coûts des expéditions (€)\"}}],\"seriesParams\":[{\"show\":\"true\",\"type\":\"histogram\",\"mode\":\"stacked\",\"data\":{\"label\":\"Somme des coûts des expéditions (€)\",\"id\":\"1\"},\"valueAxis\":\"ValueAxis-1\",\"drawLinesBetweenPoints\":true,\"showCircles\":true}],\"addTooltip\":true,\"addLegend\":true,\"legendPosition\":\"right\",\"times\":[],\"addTimeMarker\":false,\"orderBucketsBySum\":true},\"aggs\":[{\"id\":\"1\",\"enabled\":true,\"type\":\"sum\",\"schema\":\"metric\",\"params\":{\"field\":\"prix de quotation\",\"customLabel\":\"Somme des coûts des expéditions (€)\"}},{\"id\":\"2\",\"enabled\":true,\"type\":\"terms\",\"schema\":\"segment\",\"params\":{\"field\":\"destination pays.keyword\",\"size\":8,\"order\":\"desc\",\"orderBy\":\"1\",\"otherBucket\":false,\"otherBucketLabel\":\"Other\",\"missingBucket\":false,\"missingBucketLabel\":\"Missing\",\"customLabel\":\"Pays\"}},{\"id\":\"3\",\"enabled\":true,\"type\":\"filters\",\"schema\":\"group\",\"params\":{\"filters\":[{\"input\":{\"query\":\"Status is completed\"},\"label\":\"\"}]}}]}",
      "uiStateJSON": "{}",
      "description": "",
      "version": 1,
      "kibanaSavedObjectMeta": {
        "searchSourceJSON": "{\"index\":\"198b34c0-7c1d-11e9-9a16-a5eaa2f36141\",\"query\":{\"query\":\"\",\"language\":\"lucene\"},\"filter\":[]}"
      }
    },
    "_meta": {
      "savedObjectVersion": 2
    },
    "_migrationVersion": {
      "visualization": "6.7.2"
    }
  },
  {
    "_id": "75f7f820-7c94-11e9-9a16-a5eaa2f36141",
    "_type": "visualization",
    "_source": {
      "title": "Somme des coûts des expéditions",
      "visState": "{\"title\":\"Somme des coûts des expéditions\",\"type\":\"metric\",\"params\":{\"addTooltip\":true,\"addLegend\":false,\"type\":\"metric\",\"metric\":{\"percentageMode\":false,\"useRanges\":false,\"colorSchema\":\"Green to Red\",\"metricColorMode\":\"None\",\"colorsRange\":[{\"from\":0,\"to\":10000}],\"labels\":{\"show\":true},\"invertColors\":false,\"style\":{\"bgFill\":\"#000\",\"bgColor\":false,\"labelColor\":false,\"subText\":\"\",\"fontSize\":20}}},\"aggs\":[{\"id\":\"1\",\"enabled\":true,\"type\":\"sum\",\"schema\":\"metric\",\"params\":{\"field\":\"prix de quotation\",\"customLabel\":\"Coût total des expéditions (€)\"}},{\"id\":\"2\",\"enabled\":true,\"type\":\"filters\",\"schema\":\"group\",\"params\":{\"filters\":[{\"input\":{\"query\":\"Statut is completed\"},\"label\":\"\"}]}}]}",
      "uiStateJSON": "{}",
      "description": "",
      "version": 1,
      "kibanaSavedObjectMeta": {
        "searchSourceJSON": "{\"index\":\"198b34c0-7c1d-11e9-9a16-a5eaa2f36141\",\"query\":{\"query\":\"\",\"language\":\"lucene\"},\"filter\":[]}"
      }
    },
    "_meta": {
      "savedObjectVersion": 2
    },
    "_migrationVersion": {
      "visualization": "6.7.2"
    }
  },
  {
    "_id": "198b34c0-7c1d-11e9-9a16-a5eaa2f36141",
    "_type": "index-pattern",
    "_source": {
      "title": "freight_analytics",
      "fields": "[{\"name\":\"@timestamp\",\"type\":\"date\",\"count\":0,\"scripted\":false,\"searchable\":true,\"aggregatable\":true,\"readFromDocValues\":true},{\"name\":\"@version\",\"type\":\"string\",\"count\":0,\"scripted\":false,\"searchable\":true,\"aggregatable\":false,\"readFromDocValues\":false},{\"name\":\"@version.keyword\",\"type\":\"string\",\"count\":0,\"scripted\":false,\"searchable\":true,\"aggregatable\":true,\"readFromDocValues\":true},{\"name\":\"_id\",\"type\":\"string\",\"count\":0,\"scripted\":false,\"searchable\":true,\"aggregatable\":true,\"readFromDocValues\":false},{\"name\":\"_index\",\"type\":\"string\",\"count\":0,\"scripted\":false,\"searchable\":true,\"aggregatable\":true,\"readFromDocValues\":false},{\"name\":\"_score\",\"type\":\"number\",\"count\":0,\"scripted\":false,\"searchable\":false,\"aggregatable\":false,\"readFromDocValues\":false},{\"name\":\"_source\",\"type\":\"_source\",\"count\":0,\"scripted\":false,\"searchable\":false,\"aggregatable\":false,\"readFromDocValues\":false},{\"name\":\"_type\",\"type\":\"string\",\"count\":0,\"scripted\":false,\"searchable\":true,\"aggregatable\":true,\"readFromDocValues\":false},{\"name\":\"compagnie_num\",\"type\":\"number\",\"count\":0,\"scripted\":false,\"searchable\":true,\"aggregatable\":true,\"readFromDocValues\":true},{\"name\":\"date de creation\",\"type\":\"date\",\"count\":0,\"scripted\":false,\"searchable\":true,\"aggregatable\":true,\"readFromDocValues\":true},{\"name\":\"demande_num\",\"type\":\"number\",\"count\":0,\"scripted\":false,\"searchable\":true,\"aggregatable\":true,\"readFromDocValues\":true},{\"name\":\"destination pays\",\"type\":\"string\",\"count\":0,\"scripted\":false,\"searchable\":true,\"aggregatable\":false,\"readFromDocValues\":false},{\"name\":\"destination pays (coordonnees)\",\"type\":\"geo_point\",\"count\":0,\"scripted\":false,\"searchable\":true,\"aggregatable\":true,\"readFromDocValues\":true},{\"name\":\"destination pays.keyword\",\"type\":\"string\",\"count\":0,\"scripted\":false,\"searchable\":true,\"aggregatable\":true,\"readFromDocValues\":true},{\"name\":\"etat demande\",\"type\":\"string\",\"count\":0,\"scripted\":false,\"searchable\":true,\"aggregatable\":false,\"readFromDocValues\":false},{\"name\":\"etat demande.keyword\",\"type\":\"string\",\"count\":0,\"scripted\":false,\"searchable\":true,\"aggregatable\":true,\"readFromDocValues\":true},{\"name\":\"mode de transport\",\"type\":\"string\",\"count\":0,\"scripted\":false,\"searchable\":true,\"aggregatable\":false,\"readFromDocValues\":false},{\"name\":\"mode de transport (psl valide)\",\"type\":\"string\",\"count\":0,\"scripted\":false,\"searchable\":true,\"aggregatable\":false,\"readFromDocValues\":false},{\"name\":\"mode de transport (psl valide).keyword\",\"type\":\"string\",\"count\":0,\"scripted\":false,\"searchable\":true,\"aggregatable\":true,\"readFromDocValues\":true},{\"name\":\"mode de transport.keyword\",\"type\":\"string\",\"count\":0,\"scripted\":false,\"searchable\":true,\"aggregatable\":true,\"readFromDocValues\":true},{\"name\":\"origin pays (coordonnees)\",\"type\":\"geo_point\",\"count\":0,\"scripted\":false,\"searchable\":true,\"aggregatable\":true,\"readFromDocValues\":true},{\"name\":\"origine pays\",\"type\":\"string\",\"count\":0,\"scripted\":false,\"searchable\":true,\"aggregatable\":false,\"readFromDocValues\":false},{\"name\":\"origine pays.keyword\",\"type\":\"string\",\"count\":0,\"scripted\":false,\"searchable\":true,\"aggregatable\":true,\"readFromDocValues\":true},{\"name\":\"poids total\",\"type\":\"number\",\"count\":0,\"scripted\":false,\"searchable\":true,\"aggregatable\":true,\"readFromDocValues\":true},{\"name\":\"prix de quotation\",\"type\":\"number\",\"count\":0,\"scripted\":false,\"searchable\":true,\"aggregatable\":true,\"readFromDocValues\":true},{\"name\":\"saving\",\"type\":\"number\",\"count\":0,\"scripted\":false,\"searchable\":true,\"aggregatable\":true,\"readFromDocValues\":true},{\"name\":\"statut\",\"type\":\"string\",\"count\":0,\"scripted\":false,\"searchable\":true,\"aggregatable\":false,\"readFromDocValues\":false},{\"name\":\"statut.keyword\",\"type\":\"string\",\"count\":0,\"scripted\":false,\"searchable\":true,\"aggregatable\":true,\"readFromDocValues\":true},{\"name\":\"tags\",\"type\":\"string\",\"count\":0,\"scripted\":false,\"searchable\":true,\"aggregatable\":false,\"readFromDocValues\":false},{\"name\":\"tags.keyword\",\"type\":\"string\",\"count\":0,\"scripted\":false,\"searchable\":true,\"aggregatable\":true,\"readFromDocValues\":true},{\"name\":\"transporteur\",\"type\":\"string\",\"count\":0,\"scripted\":false,\"searchable\":true,\"aggregatable\":false,\"readFromDocValues\":false},{\"name\":\"transporteur.keyword\",\"type\":\"string\",\"count\":0,\"scripted\":false,\"searchable\":true,\"aggregatable\":true,\"readFromDocValues\":true}]"
    },
    "_meta": {
      "savedObjectVersion": 2
    },
    "_migrationVersion": {
      "index-pattern": "6.5.0"
    }
  },
  {
    "_id": "c669d760-7c94-11e9-9a16-a5eaa2f36141",
    "_type": "visualization",
    "_source": {
      "title": "Somme des poids totaux des expéditions",
      "visState": "{\"title\":\"Somme des poids totaux des expéditions\",\"type\":\"metric\",\"params\":{\"addTooltip\":true,\"addLegend\":false,\"type\":\"metric\",\"metric\":{\"percentageMode\":false,\"useRanges\":false,\"colorSchema\":\"Green to Red\",\"metricColorMode\":\"None\",\"colorsRange\":[{\"from\":0,\"to\":10000}],\"labels\":{\"show\":true},\"invertColors\":false,\"style\":{\"bgFill\":\"#000\",\"bgColor\":false,\"labelColor\":false,\"subText\":\"\",\"fontSize\":20}}},\"aggs\":[{\"id\":\"1\",\"enabled\":true,\"type\":\"sum\",\"schema\":\"metric\",\"params\":{\"field\":\"poids total\",\"customLabel\":\"Poids total des expéditions (kg)\"}},{\"id\":\"2\",\"enabled\":true,\"type\":\"filters\",\"schema\":\"group\",\"params\":{\"filters\":[{\"input\":{\"query\":\"statut is completed\"},\"label\":\"\"}]}}]}",
      "uiStateJSON": "{}",
      "description": "",
      "version": 1,
      "kibanaSavedObjectMeta": {
        "searchSourceJSON": "{\"index\":\"198b34c0-7c1d-11e9-9a16-a5eaa2f36141\",\"query\":{\"query\":\"\",\"language\":\"lucene\"},\"filter\":[]}"
      }
    },
    "_meta": {
      "savedObjectVersion": 2
    },
    "_migrationVersion": {
      "visualization": "6.7.2"
    }
  },
  {
    "_id": "f82f5160-7c96-11e9-9a16-a5eaa2f36141",
    "_type": "visualization",
    "_source": {
      "title": "Somme des prix des expédition pour pays d’origine",
      "visState": "{\"title\":\"Somme des prix des expédition pour pays d’origine\",\"type\":\"histogram\",\"params\":{\"type\":\"histogram\",\"grid\":{\"categoryLines\":false,\"style\":{\"color\":\"#eee\"}},\"categoryAxes\":[{\"id\":\"CategoryAxis-1\",\"type\":\"category\",\"position\":\"bottom\",\"show\":true,\"style\":{},\"scale\":{\"type\":\"linear\"},\"labels\":{\"show\":true,\"truncate\":100},\"title\":{}}],\"valueAxes\":[{\"id\":\"ValueAxis-1\",\"name\":\"LeftAxis-1\",\"type\":\"value\",\"position\":\"left\",\"show\":true,\"style\":{},\"scale\":{\"type\":\"linear\",\"mode\":\"normal\"},\"labels\":{\"show\":true,\"rotate\":0,\"filter\":false,\"truncate\":100},\"title\":{\"text\":\"Somme des prix des expédition (€)\"}}],\"seriesParams\":[{\"show\":\"true\",\"type\":\"histogram\",\"mode\":\"stacked\",\"data\":{\"label\":\"Somme des prix des expédition (€)\",\"id\":\"1\"},\"valueAxis\":\"ValueAxis-1\",\"drawLinesBetweenPoints\":true,\"showCircles\":true}],\"addTooltip\":true,\"addLegend\":true,\"legendPosition\":\"right\",\"times\":[],\"addTimeMarker\":false,\"orderBucketsBySum\":true},\"aggs\":[{\"id\":\"1\",\"enabled\":true,\"type\":\"sum\",\"schema\":\"metric\",\"params\":{\"field\":\"prix de quotation\",\"customLabel\":\"Somme des prix des expédition (€)\"}},{\"id\":\"4\",\"enabled\":true,\"type\":\"terms\",\"schema\":\"segment\",\"params\":{\"field\":\"origine pays.keyword\",\"size\":8,\"order\":\"desc\",\"orderBy\":\"1\",\"otherBucket\":false,\"otherBucketLabel\":\"Other\",\"missingBucket\":false,\"missingBucketLabel\":\"Missing\",\"customLabel\":\"Pays\"}}]}",
      "uiStateJSON": "{\"vis\":{\"legendOpen\":true}}",
      "description": "",
      "version": 1,
      "kibanaSavedObjectMeta": {
        "searchSourceJSON": "{\"index\":\"198b34c0-7c1d-11e9-9a16-a5eaa2f36141\",\"query\":{\"query\":\"\",\"language\":\"lucene\"},\"filter\":[]}"
      }
    },
    "_meta": {
      "savedObjectVersion": 2
    },
    "_migrationVersion": {
      "visualization": "6.7.2"
    }
  },
  {
    "_id": "dbbd0d40-82f1-11e9-87e0-8748652e912b",
    "_type": "visualization",
    "_source": {
      "title": "Saving",
      "visState": "{\"aggs\":[{\"enabled\":true,\"id\":\"1\",\"params\":{\"customLabel\":\"Somme des savings (€)\",\"field\":\"saving\"},\"schema\":\"metric\",\"type\":\"sum\"},{\"enabled\":true,\"id\":\"2\",\"params\":{\"customInterval\":\"2h\",\"customLabel\":\"Date de création\",\"drop_partials\":false,\"extended_bounds\":{},\"field\":\"date de creation\",\"interval\":\"M\",\"min_doc_count\":0,\"timeRange\":{\"from\":\"now-15m\",\"mode\":\"quick\",\"to\":\"now\"},\"useNormalizedEsInterval\":true},\"schema\":\"segment\",\"type\":\"date_histogram\"},{\"enabled\":true,\"id\":\"3\",\"params\":{\"customLabel\":\"Somme cumulée\",\"customMetric\":{\"enabled\":true,\"id\":\"3-metric\",\"params\":{\"field\":\"saving\"},\"schema\":{\"aggFilter\":[\"!top_hits\",\"!percentiles\",\"!percentile_ranks\",\"!median\",\"!std_dev\"],\"deprecate\":false,\"editor\":false,\"group\":\"none\",\"hideCustomLabel\":true,\"max\":null,\"min\":0,\"name\":\"metricAgg\",\"params\":[],\"title\":\"Metric Agg\"},\"type\":\"sum\"},\"metricAgg\":\"custom\"},\"schema\":\"metric\",\"type\":\"cumulative_sum\"}],\"params\":{\"addLegend\":true,\"addTimeMarker\":false,\"addTooltip\":true,\"categoryAxes\":[{\"id\":\"CategoryAxis-1\",\"labels\":{\"rotate\":0,\"show\":true,\"truncate\":100},\"position\":\"bottom\",\"scale\":{\"type\":\"linear\"},\"show\":true,\"style\":{},\"title\":{},\"type\":\"category\"}],\"grid\":{\"categoryLines\":false,\"style\":{\"color\":\"#eee\"},\"valueAxis\":\"ValueAxis-1\"},\"legendPosition\":\"right\",\"radiusRatio\":51,\"seriesParams\":[{\"data\":{\"id\":\"1\",\"label\":\"Somme des savings (€)\"},\"drawLinesBetweenPoints\":true,\"mode\":\"stacked\",\"show\":\"true\",\"showCircles\":true,\"type\":\"histogram\",\"valueAxis\":\"ValueAxis-1\"},{\"data\":{\"id\":\"3\",\"label\":\"Somme cumulée\"},\"drawLinesBetweenPoints\":true,\"interpolate\":\"linear\",\"lineWidth\":null,\"mode\":\"normal\",\"show\":true,\"showCircles\":true,\"type\":\"line\",\"valueAxis\":\"ValueAxis-1\"}],\"times\":[],\"type\":\"histogram\",\"valueAxes\":[{\"id\":\"ValueAxis-1\",\"labels\":{\"filter\":false,\"rotate\":0,\"show\":true,\"truncate\":100},\"name\":\"LeftAxis-1\",\"position\":\"left\",\"scale\":{\"mode\":\"normal\",\"type\":\"linear\"},\"show\":true,\"style\":{},\"title\":{\"text\":\"Sum of saving\"},\"type\":\"value\"}]},\"title\":\"Saving\",\"type\":\"histogram\"}",
      "uiStateJSON": "{\"vis\":{\"colors\":{\"Somme cumulée\":\"#EA6460\"}}}",
      "description": "",
      "version": 1,
      "kibanaSavedObjectMeta": {
        "searchSourceJSON": "{\"index\":\"198b34c0-7c1d-11e9-9a16-a5eaa2f36141\",\"query\":{\"language\":\"lucene\",\"query\":\"\"},\"filter\":[]}"
      }
    },
    "_meta": {
      "savedObjectVersion": 2
    },
    "_migrationVersion": {
      "visualization": "6.7.2"
    }
  }
]