[
	{
		"label": "PRICING_BOOKING.STATUS",
		"name": "listStatut",
		"type": "autocomplete",
		"srcListItems": "/api/list/listStatutFreightAudit",
		"fetchAttribute": "libelle",
		"fetchValue": "code",
		"multiple": "true"
	},
	{
		"label": "FREIGHT_AUDIT.TYPE_DEMANDE",
		"name": "listTypeDemande",
		"type": "autocomplete",
		"srcListItems": "/api/type-request/list-service-level",
		"fetchAttribute": "libelle",
		"fetchValue": "libelle",
		"multiple": "true",
		"withCriteria": "true"
	},
	{
		"label": "PRICING_BOOKING.INCOTERMS",
		"name": "listIncoterm",
		"type": "autocomplete",
		"srcListItems": "/api/incoterm/list-incoterm",
		"fetchAttribute": "libelle",
		"fetchValue": "libelle",
		"multiple": "true",
		"withCriteria": "true",
		"includeUserCompanyNum": "true",
		"includeUserNum": "true"
	},
	{
		"label": "FREIGHT_AUDIT.TRANSPORT_REF",
		"name": "listTransportRef",
		"type": "autocomplete",
		"srcListItems": "/api/list/transportRef?module=1",
		"srcTypeahead": "/api/list/transportRef?module=1",
		"fetchAttribute": "refTransport",
		"fetchValue": "refTransport",
		"multiple": "true"
	},
	{
		"label": "PRICING_BOOKING.NUM_AWB_BOL",
		"name": "listNumAwbBol",
		"type": "autocomplete",
		"fetchAttribute": "value",
		"fetchValue": "value",
		"multiple": "true"
	},
	{
		"label": "PRICING_BOOKING.ORIG_CITY",
		"name": "listOriginCity",
		"type": "autocomplete",
		"multiple": "true",
		"srcListItems": "/api/pricing/cities",
		"fetchAttribute": "city",
		"fetchValue": "city"
	},
	{
		"label": "PRICING_BOOKING.DEST_CITY",
		"name": "listDestinationCity",
		"type": "autocomplete",
		"multiple": "true",
		"srcListItems": "/api/pricing/cities",
		"fetchAttribute": "city",
		"fetchValue": "city"
	},
	{
		"label": "FREIGHT_AUDIT.TAXABLE_WEIGHT",
		"name": "maxTaxableWeight",
		"type": "number"
	},
	{
		"label": "FREIGHT_AUDIT.NEGOTIATED_PRICE",
		"name": "preCarrierCost",
		"type": "number"
	},
	{
		"label": "PRICING_BOOKING.INVOICE_CURRENCY",
		"name": "invoiceCurrency",
		"type": "autocomplete",
		"srcListItems": "/api/etablissementCurrency/get-list-CurrencyForDemande",
		"fetchAttribute": "codeLibelle",
		"fetchValue": "ecCurrencyNum",
		"multiple": "false",
		"withCriteria": "true",
		"includeUserCompanyNum": "true",
		"includeUserNum": "true"
	},
	{
		"label": "FREIGHT_AUDIT.INVOICE_NUMBER",
		"name": "applyCarrierIvoiceNumber",
		"type": "autocomplete"
	},
	{
		"label": "FREIGHT_AUDIT.INVOICE_DATE_FROM",
		"name": "invoiceDateFrom",
		"type": "date"
	},
	{
		"label": "FREIGHT_AUDIT.INVOICE_DATE_TO",
		"name": "invoiceDateTo",
		"type": "date"
	},
	{
		"label": "PRICING_BOOKING.EXCHANGE_RATE",
		"name": "exchangeRate",
		"type": "text"
	},
	{
		"label": "FREIGHT_AUDIT.INVOICE_PRICE",
		"name": "priceCharged",
		"type": "number"
	},
	{
		"label": "FREIGHT_AUDIT.MEMO",
		"name": "memo",
		"type": "text"
	},
	{
		"label": "FREIGHT_AUDIT.DATE_PICKUP",
		"name": "datePickup",
		"type": "date"
	},
	{
		"label": "FREIGHT_AUDIT.GAP",
		"name": "gap",
		"type": "number"
	},
	{
		"label": "PRICING_BOOKING.ORIGIN",
		"name": "listOrigineCountry",
		"type": "autocomplete",
		"srcListItems": "/api/list/countries",
		"fetchAttribute": "libelleCode",
		"fetchValue": "libelle",
		"multiple": "true",
		"hasCountryTemplate": "true"
	},
	{
		"label": "PRICING_BOOKING.DESTINATION",
		"name": "listDestCountry",
		"type": "autocomplete",
		"srcListItems": "/api/list/countries",
		"fetchAttribute": "libelleCode",
		"fetchValue": "libelle",
		"multiple": "true",
		"hasCountryTemplate": "true"
	},
	{
		"label": "GENERAL.LOAD_PLANNING.PICKUP_FROM",
		"name": "datePickUpFrom",
		"type": "date"
	},
	{
		"label": "GENERAL.LOAD_PLANNING.PICKUP_TO",
		"name": "datePickUpTo",
		"type": "date"
	},
	{
		"label": "FREIGHT_AUDIT.DATE_DELIVERY_FROM",
		"name": "dateDeliveryFrom",
		"type": "date"
	},
	{
		"label": "FREIGHT_AUDIT.DATE_DELIVERY_TO",
		"name": "dateDeliveryTo",
		"type": "date"
	},
	{
		"label": "FREIGHT_AUDIT.MODE_TRANSPORT",
		"name": "listModeTransport",
		"type": "autocomplete",
		"srcListItems": "/api/list/listModeTransportFreightAudit",
		"fetchAttribute": "libelle",
		"fetchValue": "code",
		"multiple": "true"
	},
	{
		"label": "PRICING_BOOKING.FLAG",
		"name": "listFlag",
		"type": "flag-multi-select",
		"fetchAttribute": "listFlag",
		"fetchValue": "listFlag"
	},
	{
		"label": "PRICING_BOOKING.REQUESTOR",
		"name": "listEbUserOwnerRequest",
		"type": "autocomplete",
		"srcListItems": "api/pricing/get-list-requestor",
		"fetchAttribute": "nomPrenom",
		"fetchValue": "ebUserNum",
		"multiple": "true",
		"withCriteria": "true"
	}
]