[
	{
		"label": "Reference",
		"name": "listCustomerRefAndtransportRef",
		"type": "autocomplete",
		"srcListItems": "/api/list/customerRefAndtransportRef",
		"srcTypeahead": "/api/list/customerRefAndtransportRef",
		"fetchAttribute": "customerRefTransportRef",
		"fetchValue": "customerRefTransportRef",
		"multiple": "true"
	},
	{
		"label": "Origin",
		"name": "listOrigins",
		"type": "autocomplete",
		"srcListItems": "/api/list/countries",
		"fetchAttribute": "libelleCode",
		"fetchValue": "ecCountryNum",
		"multiple": "true",
		"hasCountryTemplate": "true"
	},
	{
		"label": "Destination",
		"name": "listDestinations",
		"type": "autocomplete",
		"srcListItems": "/api/list/countries",
		"fetchAttribute": "libelleCode",
		"fetchValue": "ecCountryNum",
		"multiple": "true",
		"hasCountryTemplate": "true"
	},
	{
		"label": "TRACK_TRACE.GROSS_WEIGHT",
		"name": "totalWeight",
		"type": "number"
	},
	{
		"label": "TYPE_UNIT.PACKING_LIST",
		"name": "unitsPackingList",
		"type": "text"
	},
	{
		"label": "PRICING_BOOKING.STATUT_DOCUMENT",
		"name": "listInfosDocsStatus",
		"srcListItems": "/api/list/listInfosDocsStatut",
		"type": "autocomplete",
		"fetchAttribute": "libelle",
		"fetchValue": "code",
		"multiple": "true",
		"hidden": true

	},
	{
		"label": "TRACK_TRACE.CUSTOMER_REFERENCE",
		"name": "listCustomerReference",
		"type": "autocomplete",
		"srcListItems": "/api/list/customerReference?module=1",
		"srcTypeahead": "/api/list/customerReference?module=1",
		"fetchAttribute": "customerReference",
		"fetchValue": "customerReference",
		"multiple": "true"
	},
	{
		"label": "PRICING_BOOKING.NUM_AWB_BOL",
		"name": "listNumAwbBol",
		"type": "autocomplete",
		"srcListItems": "/api/pricing/numAwbBol?",
		"srcTypeahead": "/api/pricing/numAwbBol?",
		"hasNoAttribute": true,
		"fetchValue": "numAwbBol",
		"multiple": "true"
	},
	{
		"label": "PRICING_BOOKING.ORIG_CITY",
		"name": "listOriginCity",
		"type": "autocomplete",
		"multiple": "true",
		"srcListItems": "/api/pricing/cities",
		"fetchAttribute": "city",
		"fetchValue": "city",
		"addTag": true
	},
	{
		"label": "PRICING_BOOKING.DEST_CITY",
		"name": "listDestinationCity",
		"type": "autocomplete",
		"multiple": "true",
		"srcListItems": "/api/pricing/cities",
		"fetchAttribute": "city",
		"fetchValue": "city",
		"addTag": true
	},
	{
		"label": "TRACK_TRACE.LATE",
		"name": "late",
		"type": "autocomplete",
		"fetchAttribute": "value",
		"fetchValue": "key"
	},
	{
		"label": "TRACK_TRACE.LIBELLE_LAST_PSL",
		"name": "libelleLastPsl",
		"type": "autocomplete",
		"srcListItems": "/api/list/listStatutTracing",
		"fetchAttribute": "libelle",
		"fetchValue": "codeAlpha",
		"multiple": "true",
		"withCriteria": "true"
	},
	{
		"label": "TRACK_TRACE.DATE_LAST_PSL",
		"name": "dateLastPsl",
		"type": "date"
	},
	{
		"label": "TRACK_TRACE.Estimated_PSL_START",
		"name": "datePickupTM",
		"type": "date"
	},
	{
		"label": "TRACK_TRACE.Estimated_PSL_END",
		"name": "finalDelivery",
		"type": "date"
	},
	{
		"label": "Mode Transport",
		"name": "listModeTransport",
		"type": "autocomplete",
		"srcListItems": "/api/list/listModeTransportFreightAudit",
		"fetchAttribute": "libelle",
		"fetchValue": "code",
		"multiple": "true"
	},
	{
		"label": "Status",
		"name": "listStatutStr",
		"type": "autocomplete",
		"srcListItems": "/api/list/listStatutTracing",
		"fetchAttribute": "libelle",
		"fetchValue": "codeAlpha",
		"multiple": "true",
		"withCriteria": "true"
	},
	{
		"label": "Carrier",
		"name": "listCarrier",
		"type": "autocomplete",
		"srcListItems": "/api/list/listCarrier",
		"srcTypeahead": "/api/list/listCarrier",
		"fetchAttribute": "nomPrenom",
		"fetchValue": "ebUserNum",
		"multiple": "true"
	},
	{
		"label": "Pickup from",
		"name": "datePickUpFrom",
		"type": "date"
	},
	{
		"label": "Pickup to",
		"name": "datePickUpTo",
		"type": "date"
	},
	{
		"label": "Incoterm",
		"name": "listIncoterm",
		"type": "autocomplete",
		"srcListItems": "/api/config-psl/search-schema-psl",
		"fetchAttribute": "designation",
		"fetchValue": "xEcIncotermLibelle",
		"multiple": "true",
		"withCriteria": "true"
	},
	{
		"label": "Flag",
		"name": "listFlag",
		"type": "flag-multi-select",
		"fetchAttribute": "listFlag",
		"fetchValue": "listFlag"
  	},
	{
		"label": "Transport status per Unit",
		"name": "listTransportStatus",
		"srcListItems": "/api/list/listTransitStatus",
		"type": "autocomplete",
		"fetchAttribute": "libelle",
		"fetchValue": "code",
		"multiple": "true"
	},
	{
		"label": "Origin company name",
		"name": "companyOrigin",
		"type": "text"
	},
	{
		"label": "Carrier's unique Ref Number",
		"name": "carrierUniqRefNum",
		"type": "text"
	},
	{
		"label": "Reference unit",
		"name": "listUnitReference",
		"type": "autocomplete",
		"srcTypeahead": "/api/list/autoCompleteList?field=unitReference&module=3",
		"fetchAttribute": "unitReference",
		"fetchValue": "unitReference"
	},
	{

		"label": "PRICING_BOOKING.TRANSPORT_CONFIRMATION",
		"name": "transportConfirmation",
		"type": "autocomplete",
		"srcListItems": "/api/list/list-generic-enum?genericEnumKey=ENUM.TransportConfirmation",
		"fetchAttribute": "key",
		"fetchValue": "code",
		"multiple": "true"
	},
	{
		"label": "TYPE_UNIT.PACKING_LIST",
		"name": "unitsPackingList",
		"type": "text"
	},
	{
		"label": "PRICING_BOOKING.REQUESTOR",
		"name": "listUser",
		"type": "autocomplete",
		"srcListItems": "api/pricing/get-list-requestor",
		"fetchAttribute": "nomPrenom",
		"fetchValue": "ebUserNum",
		"multiple": "true",
		"withCriteria": "true"
	}
]
