[
    {
      "label": "Status",
      "name": "listStatut",
      "type": "autocomplete", 
      "srcListItems": "/api/list/listUserStatus",
      "fetchAttribute": "libelle",
      "fetchValue": "code",
      "multiple": "true"
    },
    {
        "label": "Groupe",
        "name": "listGroupeNum",
        "type": "autocomplete", 
        "srcListItems": "/api/list/listUserGroup",
        "fetchAttribute": "name",
        "fetchValue": "ebUserGroupNum",
        "multiple": "true"
      }
  ]
