<?xml version="1.0" encoding="utf-8"?>
<!-- Generator: Adobe Illustrator 19.0.0, SVG Export Plug-In . SVG Version: 6.00 Build 0)  -->
<svg version="1.1" id="Calque_1" xmlns="http://www.w3.org/2000/svg" x="0px" y="0px"
     viewBox="-261.6 399.6 42 42" style="enable-background:new -261.6 399.6 42 42;" xml:space="preserve">
<style type="text/css">
	.st0{fill:#899399;}
	.st1{fill:none;stroke:#FFFFFF;stroke-width:2;stroke-miterlimit:10;}
	.st2{fill:#FFFFFF;}
</style>
<circle id="XMLID_38_" class="st0" cx="-240.7" cy="420.5" r="20.8"/>
<path id="XMLID_12_" class="st1" d="M-225.6,422.9c0,2.4-0.6,4.7-1.6,6.7h-26.9c-1-2-1.6-4.3-1.6-6.7c0-8.3,6.7-15,15-15
	S-225.6,414.6-225.6,422.9z"/>
<g id="XMLID_3_">
	<circle id="XMLID_2_" class="st2" cx="-252.2" cy="424.9" r="1.2"/>
	<circle id="XMLID_6_" class="st2" cx="-251" cy="417.4" r="1.2"/>
	<circle id="XMLID_7_" class="st2" cx="-245.3" cy="412.4" r="1.2"/>
	<circle id="XMLID_8_" class="st2" cx="-236.8" cy="412.4" r="1.2"/>
	<circle id="XMLID_10_" class="st2" cx="-230.5" cy="417.4" r="1.2"/>
	<circle id="XMLID_11_" class="st2" cx="-229.7" cy="424.8" r="1.2"/>
	<path id="XMLID_24_" class="st2" d="M-238.7,422.3c0.1,0.2,0.1,0.4,0.1,0.6c0,1.1-0.9,2.1-2.1,2.1c-1.1,0-2.1-0.9-2.1-2.1
		c0-0.8,0.5-1.5,1.2-1.9l3.6-5.2L-238.7,422.3z"/>
</g>
</svg>
