<?xml version="1.0" encoding="utf-8"?>
<!-- Generator: Adobe Illustrator 19.0.0, SVG Export Plug-In . SVG Version: 6.00 Build 0)  -->
<svg version="1.1" id="Calque_1" xmlns="http://www.w3.org/2000/svg" x="0px" y="0px"
     viewBox="0 0 34 34.4" style="enable-background:new 0 0 34 34.4;" xml:space="preserve">
<style type="text/css">
	.st0{fill:#AC1E23;}
</style>
<g>
	<path class="st0" d="M17,0.4C7.7,0.4,0.2,7.9,0.2,17.2c0,3.4,1,6.5,2.7,9.2l-1.7,6.3L7.5,31c2.7,1.9,6,3,9.5,3
		c9.3,0,16.8-7.5,16.8-16.8C33.8,7.9,26.3,0.4,17,0.4z M17,27.5c-1.7,0-2.9-1.5-2.9-3c0-1.4,1.1-3.1,2.9-3.1c1.8,0,3.1,1.4,3.1,3.1
		C20.1,26.1,18.9,27.5,17,27.5z M18.5,19.7c-0.1,0.4-0.6,0.7-1,0.7h-0.9c-0.4,0-0.9-0.3-1-0.7c-0.2-0.7-1.6-9-1.8-12
		c0-0.4,0.3-0.7,0.7-0.7h4.9c0.4,0,0.8,0.3,0.7,0.7C20,10.8,18.7,18.9,18.5,19.7z"/>
</g>
</svg>
