<?xml version="1.0" encoding="utf-8"?>
<!-- Generator: Adobe Illustrator 19.0.0, SVG Export Plug-In . SVG Version: 6.00 Build 0)  -->
<svg version="1.1" id="Calque_1" xmlns="http://www.w3.org/2000/svg" x="0px" y="0px"
     viewBox="-278 404.3 38.4 32.6" style="enable-background:new -278 404.3 38.4 32.6;" xml:space="preserve">
<style type="text/css">
	.st0{fill:#899399;}
</style>
<g>
	<path class="st0" d="M-241.5,432.4c1,0,1.9-0.8,1.9-1.9V418c0-1-0.8-1.9-1.9-1.9h-2.6v16.3C-244.1,432.4-241.5,432.4-241.5,432.4z
		 M-275.3,416.4c-1.6,0-2.7,1.2-2.7,2.6v17.9h15.4v-4.4h-11.2v-2.2h9L-275.3,416.4z M-272.5,416.3l10.1,13.2v-9
		c0,0,7.6,9.9,8.2,10.6c0.7,0.9,2,1.1,2.9,0.4c0.9-0.7,1.1-2,0.4-2.9c-0.7-0.9-8.8-11.4-8.8-11.4c-0.5-0.5-1.1-0.8-1.9-0.8
		L-272.5,416.3L-272.5,416.3z M-260.3,435.1c0,1,0.8,1.9,1.9,1.9h12.4c1,0,1.9-0.8,1.9-1.9v-2.7h-16.2V435.1z M-261.8,404.3H-273
		v3.1h9L-261.8,404.3z M-268.7,414.8c2.4,0,4.3-1.9,4.3-4.3h2.2l-1.7-2.2h-9.1c0,0,0,1.8,0,2.2C-273,412.9-271,414.8-268.7,414.8z"
		/>
</g>
</svg>
