<?xml version="1.0" encoding="utf-8"?>
<!-- Generator: Adobe Illustrator 19.0.0, SVG Export Plug-In . SVG Version: 6.00 Build 0)  -->
<svg version="1.1" id="Calque_1" xmlns="http://www.w3.org/2000/svg" x="0px" y="0px"
     viewBox="-280 404.5 34 33.4" style="enable-background:new -280 404.5 34 33.4;" xml:space="preserve">
<style type="text/css">
	.st0{fill:#899399;}
</style>
<g>
	<path id="XMLID_148_" class="st0" d="M-279.5,435.1l9.3-8.5c0.2,0.3,0.4,0.5,0.7,0.8c0.2,0.2,0.5,0.5,0.8,0.7l-8.5,9.3
		c-0.6,0.7-1.7,0.7-2.4,0.1l0,0C-280.2,436.8-280.2,435.7-279.5,435.1z"/>
	<path class="st0" d="M-259.1,431c7.2,0,13.1-5.9,13.1-13.1c0-7.2-5.9-13.1-13.1-13.1c-7.2,0-13.1,5.9-13.1,13.1
		C-272.2,425.1-266.3,431-259.1,431z M-269.8,417.8c0-5.9,4.8-10.7,10.7-10.7c5.9,0,10.7,4.8,10.7,10.7s-4.8,10.7-10.7,10.7
		C-265,428.5-269.8,423.8-269.8,417.8z"/>
	<path id="XMLID_119_" class="st0" d="M-253.4,412c-1.3-1.4-3-2.3-4.8-2.4c-0.4,0-0.7,0.2-0.8,0.6l-0.1,0.6
		c-0.1,0.4,0.2,0.8,0.6,0.8l0,0c3,0.3,4.8,2.8,4.8,4.9l0,0c0,0.3,0.2,0.6,0.6,0.7l0.7,0.1c0.4,0.1,0.8-0.2,0.8-0.7
		C-251.5,415-252.2,413.3-253.4,412z"/>
	<g>
		<path class="st0" d="M-258.8,414.6c-0.8,0-1.4,0.2-1.9,0.6s-0.8,1-1,1.7h3.8v1h-4v0.3v0.4v0.3h3.4v1h-3.3c0.4,1.4,1.4,2.1,3.1,2.1
			c0.8,0,1.6-0.1,2.5-0.4v1.4c-0.7,0.3-1.6,0.4-2.6,0.4c-1.4,0-2.5-0.3-3.3-0.9c-0.8-0.6-1.4-1.5-1.7-2.6h-1.2v-1h1.1v-0.2v-0.2
			v-0.4h-1.1v-1h1.3c0.2-1.1,0.8-2,1.6-2.7c0.9-0.6,2-1,3.3-1c1.1,0,2.1,0.2,3,0.6l-0.7,1.3C-257.4,414.8-258.1,414.6-258.8,414.6z"
			/>
	</g>
</g>
</svg>
