<?xml version="1.0" encoding="utf-8"?>
<!-- Generator: Adobe Illustrator 19.0.0, SVG Export Plug-In . SVG Version: 6.00 Build 0)  -->
<svg version="1.1" id="Calque_1" xmlns="http://www.w3.org/2000/svg" x="0px" y="0px"
     viewBox="0 0 22.7 35.8" style="enable-background:new 0 0 22.7 35.8;" xml:space="preserve">
<style type="text/css">
	.st0{fill:#AC1E23;}
</style>
<g>
	<path id="XMLID_120_" class="st0" d="M11.6,8.2c-1.6,0-2.9,1.3-2.9,2.9c0,1.6,1.3,2.9,2.9,2.9c1.6,0,2.9-1.3,2.9-2.9
		C14.5,9.5,13.2,8.2,11.6,8.2z"/>
	<path class="st0" d="M22.7,11.5c0-6.5-5.5-11.8-12.2-11.3C4.9,0.6,0.4,5.1,0,10.7c-0.3,4.4,1.9,8.4,5.4,10.5l6.1,14.5l6.3-14.7
		l-0.1,0C20.7,18.9,22.7,15.4,22.7,11.5z M12.3,17.5c-4,0.4-7.4-3-7-7C5.5,7.5,8,5.1,11,4.8c4-0.4,7.4,3,7,7
		C17.7,14.8,15.2,17.2,12.3,17.5z"/>
</g>
</svg>
