<?xml version="1.0" encoding="utf-8"?>
<!-- Generator: Adobe Illustrator 19.0.0, SVG Export Plug-In . SVG Version: 6.00 Build 0)  -->
<svg version="1.1" id="Calque_1" xmlns="http://www.w3.org/2000/svg" x="0px" y="0px"
     viewBox="-281 407.9 31.8 26" style="enable-background:new -281 407.9 31.8 26;" xml:space="preserve">
<style type="text/css">
	.st0{fill:#899399;}
</style>
<g>
	<polygon class="st0" points="-249.2,415.5 -270.9,433.9 -281,424.9 -281,418.2 -270.9,427.2 -249.2,407.9 	"/>
</g>
</svg>
