<?xml version="1.0" encoding="utf-8"?>
<!-- Generator: Adobe Illustrator 19.0.0, SVG Export Plug-In . SVG Version: 6.00 Build 0)  -->
<svg version="1.1" id="Calque_1" xmlns="http://www.w3.org/2000/svg" x="0px" y="0px"
     viewBox="0 0 56.6 56.6" style="enable-background:new 0 0 56.6 56.6;" xml:space="preserve">
<style type="text/css">
	.st0{fill:#AC1F23;}
	.st1{fill-rule:evenodd;clip-rule:evenodd;fill:#FFFFFF;}
</style>
<g id="PICTO_2_1_">
	<circle id="XMLID_148_" class="st0" cx="28.3" cy="28.3" r="19.7"/>
	<path id="XMLID_147_" class="st0" d="M51.8,12.6c-3.1-4.6-7.6-8.3-12.7-10.4C34,0,28.2-0.5,22.8,0.5C17.3,1.6,12.2,4.4,8.3,8.3
		c-3.9,3.9-6.7,9-7.7,14.5C-0.5,28.2,0,34,2.1,39.1c2.1,5.1,5.8,9.6,10.4,12.7c4.6,3.1,10.2,4.8,15.7,4.8v-1.4
		c-5.3,0-10.6-1.6-15-4.5c-4.4-2.9-7.9-7.2-9.9-12.1c-2-4.9-2.6-10.4-1.5-15.6c1-5.2,3.6-10,7.4-13.8C13,5.5,17.9,2.9,23,1.9
		c5.2-1,10.7-0.5,15.6,1.5c4.9,2,9.1,5.5,12.1,9.9c3,4.4,4.5,9.7,4.5,15h1.4C56.6,22.7,54.9,17.2,51.8,12.6z"/>
	<path id="XMLID_146_" class="st0" d="M40.5,10.1c-3.6-2.4-7.9-3.7-12.2-3.7v1.4c4,0,8.1,1.2,11.4,3.5c3.4,2.2,6,5.5,7.6,9.2
		c1.6,3.7,2,7.9,1.2,11.9c-0.8,4-2.8,7.7-5.6,10.5c-2.9,2.9-6.6,4.9-10.5,5.6c-4,0.8-8.2,0.4-11.9-1.2c-3.7-1.5-7-4.2-9.2-7.6
		C9,36.4,7.7,32.3,7.7,28.3H6.4c0,4.3,1.3,8.6,3.7,12.2c2.4,3.6,5.9,6.4,9.8,8.1c4,1.7,8.4,2.1,12.7,1.2c4.2-0.8,8.2-3,11.2-6
		c3-3,5.2-7,6-11.2c0.8-4.2,0.4-8.7-1.2-12.7C46.9,15.9,44.1,12.5,40.5,10.1z"/>
	<polygon id="XMLID_145_" class="st1" points="41.2,24.3 25.3,37.8 17.9,31.2 17.9,26.3 25.3,32.9 41.2,18.8 41.2,24.3 	"/>
</g>
</svg>
