<?xml version="1.0" encoding="utf-8"?>
<!-- Generator: Adobe Illustrator 19.0.0, SVG Export Plug-In . SVG Version: 6.00 Build 0)  -->
<svg version="1.1" id="Calque_1" xmlns="http://www.w3.org/2000/svg" x="0px" y="0px"
     viewBox="0 0 34 33.4" style="enable-background:new 0 0 34 33.4;" xml:space="preserve">
<style type="text/css">
	.st0{fill:#AC1E23;}
</style>
<g>
	<path id="XMLID_148_" class="st0" d="M0.5,30.6l9.3-8.5c0.2,0.3,0.4,0.5,0.7,0.8c0.2,0.2,0.5,0.5,0.8,0.7l-8.5,9.3
		c-0.6,0.7-1.7,0.7-2.4,0.1v0C-0.2,32.3-0.2,31.2,0.5,30.6z"/>
	<path class="st0" d="M20.9,26.5c7.2,0,13.1-5.9,13.1-13.1c0-7.2-5.9-13.1-13.1-13.1c-7.2,0-13.1,5.9-13.1,13.1
		C7.8,20.6,13.7,26.5,20.9,26.5z M10.2,13.3c0-5.9,4.8-10.7,10.7-10.7c5.9,0,10.7,4.8,10.7,10.7c0,5.9-4.8,10.7-10.7,10.7
		C15,24,10.2,19.3,10.2,13.3z"/>
	<path id="XMLID_119_" class="st0" d="M26.6,7.5c-1.3-1.4-3-2.3-4.8-2.4c-0.4,0-0.7,0.2-0.8,0.6l-0.1,0.6c-0.1,0.4,0.2,0.8,0.6,0.8
		l0,0c3,0.3,4.8,2.8,4.8,4.9l0,0c0,0.3,0.2,0.6,0.6,0.7l0.7,0.1c0.4,0.1,0.8-0.2,0.8-0.7C28.5,10.5,27.8,8.8,26.6,7.5z"/>
	<g>
		<path class="st0" d="M21.2,10.1c-0.8,0-1.4,0.2-1.9,0.6c-0.5,0.4-0.8,1-1,1.7h3.8v1h-4l0,0.3v0.4l0,0.3h3.4v1h-3.3
			c0.4,1.4,1.4,2.1,3.1,2.1c0.8,0,1.6-0.1,2.5-0.4v1.4c-0.7,0.3-1.6,0.4-2.6,0.4c-1.4,0-2.5-0.3-3.3-0.9c-0.8-0.6-1.4-1.5-1.7-2.6
			H15v-1h1.1l0-0.2v-0.2l0-0.4H15v-1h1.3c0.2-1.1,0.8-2,1.6-2.7c0.9-0.6,2-1,3.3-1c1.1,0,2.1,0.2,3,0.6l-0.7,1.3
			C22.6,10.3,21.9,10.1,21.2,10.1z"/>
	</g>
</g>
</svg>
