   __  ___                  ______                                         ______    __  __    ___     _   __    ______    __            ____     ____ 
   /  |/  /   __  __        /_  __/  ____  _      __  ___    _____         / ____/   / / / /   /   |   / | / /   / ____/   / /           / __ \   / __ )
  / /|_/ /   / / / /         / /    / __ \| | /| / / / _ \  / ___/        / /       / /_/ /   / /| |  /  |/ /   / __/     / /           / /_/ /  / __  |
 / /  / /   / /_/ /         / /    / /_/ /| |/ |/ / /  __/ / /           / /___    / __  /   / ___ | / /|  /   / /___    / /___        / ____/  / /_/ / 
/_/  /_/    \__, /         /_/     \____/ |__/|__/  \___/ /_/            \____/   /_/ /_/   /_/  |_|/_/ |_/   /_____/   /_____/       /_/      /_____/  
           /____/                                                                                                                                       