  __  __           _______                                  
 |  \/  |         |__   __|                                 
 | \  / |  _   _     | |      ___   __      __   ___   _ __ 
 | |\/| | | | | |    | |     / _ \  \ \ /\ / /  / _ \ | '__|
 | |  | | | |_| |    | |    | (_) |  \ V  V /  |  __/ | |   
 |_|  |_|  \__, |    |_|     \___/    \_/\_/    \___| |_|   
            __/ |                                           
           |___/               
		   

  _____                         _     _               _____   _   _                  _   
 |  __ \                       | |   | |             / ____| | | (_)                | |  
 | |__) |   ___    ___    ___  | |_  | |_    ___    | |      | |  _    ___   _ __   | |_ 
 |  _  /   / _ \  / __|  / _ \ | __| | __|  / _ \   | |      | | | |  / _ \ | '_ \  | __|
 | | \ \  |  __/ | (__  |  __/ | |_  | |_  |  __/   | |____  | | | | |  __/ | | | | | |_ 
 |_|  \_\  \___|  \___|  \___|  \__|  \__|  \___|    \_____| |_| |_|  \___| |_| |_|  \__|
                                   